L
free delivery
Amaon Fulent Services
172 Trads reet
LealinghesY11
LurPosTAG PA
013
SA
CARRIER LEAVE IF NO RESPONSE
C-013
ADORESS SERVICE REQUESTED
9959 6
0185916576814 CO81
ALBERT CALPITO
6960 KOLL CENTER PKWY STE 305
PLEASANTON, CA 94566-3149
06XOPz4/12/secondtef 1/40864456e90/4132
USPS TRACKING # eVS
9361 2896 7609 0591 6576 81
KCVG-KTPA-B
OAKS
C-013
free listening
ItC and Audible shows
