SHIP FROM
Pece See
P00emn Ros
Deo 244
For oh x
S
uS Postage
SmaPo
Ship To
IG
JYOTHI KASHI
6960 KOLLCENTER PAW SIE 305
PIEASANTON CA9456-3149
USPS TRACKING # e-VS
9261 2909 8194 2420 1481 11
911913) 46521 O145279
