UNS COMPANY
(020) 626-8500
UNIS COMPANY
15930 VALLEY BLVD
CITY OF INDUSTRY CAS1744-330
3 LBS
1 OF
DWT 843
SHIP TO
KAILASNATH DORNADULA
(510) 552-1236
KAILASNATH DORNADULA
STE #305
6960 KOLL CENTER PARKWAY
PLEASANTON CA 94566
CA 945 9-04
UPS GROUND
TRACKING # 1z X09 029 03 5879 8248
BILLING 3RD PARTY
REF 1.BL0100
ws 21
A
