EMAE
prime
free delivery
Aae Futmt Service
72 1de ree
LevgtY 4t
USA
013
CARRIER-LEAVE IF NO RESPONSE
C-013
915
ADDRESS SERVICE REQUESTED
CO81
0185916576814
ALBERT CALPIT0
6960 KOLL CENTER PKWY STE 305
PLEASANTON CA 94565-3149
य
DEXOP:/12condifat t/44I5404132
USPS TRACKNG eVS
ПИН
9361 2896 7609 0531 6576 8
KCVG-KTPA-B
OAK5
C-013
free listening
Tble
