my commute?
Alexa what's
PRODUCTIVITY
OAK4
VIVOSUN
3837 Bay Lake Trail Suite 115
North Las Vegas NV 89030
USA
J
Amazon
99
Ship To
AMZL US LMA
KP.0122
L
LIN YANG
6960 KOLL CENTER PARKWAY
PLEASANTON CA 94566-3149
16/22/17
06Yd3BIM4/1/second/1 of 1/510-552-1236/3011
6960 KO
X
TEH32537906 3000
A-6.1D
DSF4-DS-A
DSF4-B
echo
coffee
Alexa, order
111 30
L
