CS
SHIP FROM
00 Terminal Road
Dock Door 244
For Worth TX 7510
Parcel Sele
uS Postage
SmarPo
e-VS
Ship To
G
JYOTHI KASHI
6960 KOLLCENTER PKW STE 305
PLEASANTON CA 94566-3149
USPS TRACKING# e-VS
9261 2909 8194 2420 1481 11
(9611913) 4652116 10145279
1.4
2
