EMA
prime
free delivery
Amazon Fulfillment Services
172 Trade Street
Lexington KY 40511
USA
PARCEL SELECT
U POSTAGE PAID
C
AFS
013
e VS
CARRIER-LEAVE IF NO RESPONSE
C-013
91566
ADDRESS SERVICE REQUESTED
CO81
7V
018591657681
ALBERT CALPITO
6960 KOLL CENTER PKWY STE 305
PLEASANTON CA 94566-3149
D6X2QPJ24/12/second/fef 1/4086445690/41 32
USPS TRACKING # eVS
9361 2896 7609 0591 6576 81
KCVG-KTPA-B
OAK5
C-013
free listening
