SHIP FROM
Pacel Sale
S
00 Teminel Road
Ccck Door 244
For Worh TX 7310e
US Pastage
SmarPor
eVS
Ship To
JYOTHI KASHI
6960 KOLLCENTER PKW STE 305
PLEASANTON CA 94566-3149
USPS TRACKING # e-VS
9261 2909 8194 2420 1481 11
9611913) 465216 10145279
