SHIP FROM
Pare See
S
0 Temn Road
Dech Deer 244
Fat Warh TX710e
uS Pertage
SarP
Ship Te:
G
JYOTHI KASHI
6960 KOLLCENTER PKW STE 305
PLEASANTONCA94566-3149
USPS TRACKING #e-VS
9261 2909 8194 2420 1481 11
(9811913) 4652115 10145279
