S
SHIP FROM
TemRat
DDea 2
Fat m TX 710e
PaiS
uS Puae P
Sa
Ship To:
G
JYOTHI KASHI
69 KOLLCENTER PKW STE 0s
PLEASANTON CA9456-3149
USPS TRACKING # e-VS
9261 2909 8194 2420 1481 11
(9611913) 465211S 10145279
