SHIP FROM
Pacel Sele
US Pastage
SmarPo
e-VS
P00 Terninel Rosd
Dcck Door 244
For Worth TX 7310e
Ship To
G
JYOTHI KASHI
6960 KOLLCENTER PKW STE 305
PLEASANTON CA 94566-3149
USPS TRACKING # e-VS
9261 2909 8194 2420 1481 11
9611913) 46521 6 10145279
