L
atmine
free delivery
Amazon Fulfillment Services
172 Trade Street
Lexington KY 40511
PARCEL SELECT
Ue POSTAGE PA
S
SA
USA
013
CARRIER-LEAVE IF NO RESPONSE
C-013
995 6
ADDRESS SERVICE REQUESTED
CO081
7M
#018591657681#
ALBERT CALPITO
6960 KOLL CENTER PKWY STE 305
PLEASANTON, CA 94566-3149
06X2QPJ24/12/second/1 of 1/4086445690/4132
USPS TRACKING# eVS
9361 2896 7609 0591 6576 81
OAK5
C-013
KCVG-KTPA-B
free listening
