17) 44
Po 2
MENCER
ORIGINAL ADDRESS
YOTHI KAH
60 NCLL CENDE P
(US)
STE 305
PLEACANTON CA 94566
CORRECTED ADDRESS
G
SMIOTA
JYOTHI KASH
6960 KNOLL CENTER PKWY
STE 305
PLEASANTON CA 94566
TR7753 2333 9637
94566
FXG ReLabel
6/5/2919 5 14
wn aus(e 45 ee0) 7T53 333
aopoch here
Aign battom of pee-n
FedEx
Express
P-LE
PEEL HER
