EMPTY
02レ1
my commute
Alexa, what's
PRODUCTIVITY
OAK4
Amazon
8ay Tra 1
No aVe N
uSA
99
Ship To
KP.0122
L
INNANG
KOI CENTER PARKWAY
PIEASANTON CA 94566 314
P
C\
6/22/17
06Y036M4/1/cecond/ot 1/5 10 557 1236/3011
6960 KO
X
A-6.1D
DSF4-B
DSF4-DS-A
echo
coffee
Alexa, order
