FedEx
Express
347-1000
PEEN HENE
5/29/2019
FedEx
PI
in
st
fla
th
U.
(17) 824 143
wane
Seset
NY 10007
OR IGINAL ADDRESS:
SMIOTA
JYOTHI KASHI
6960 KNOLL CENTERE PKWY
STE 306
PLEASANTON CA ASE6
(US)
CORRECTED ADDRESS:
SM IOTA
JYOTHI KASHENTER PKWY
6960 KNOLL
STE 305
PLEASANTON
CA 94566
TRKA 7753 3833 9637
94566
FXG ReLabel
6/5/2019 5
9622 0019 0 (000 45 6980) 9 00 753 3633 9637
Allgn battom of peol
