SHIP FROM:
Parcel Sele
P00 Terminel Road
Dock Door 244
Fort Worh TX 78106
US Postage Pad
SmarPos
eVS
Ship To:
JYOTHI KASHI
6960 KOLLCENTER PKW STE 305
PLEASANTON CA 94566-3149
USPS TRACKING # e-VS
9261 2909 8194 2420 1481 11
(9611913) 4652116 10145279
1:4 774 20e
