%S4
SHIP FROM:
900 Teminal Rond
Dock Door 244
For Wonh TX 7S100
Parcel Sele
US Postage Paid
SmanPor
eVS
Ship To:
JYOTHI KASHI
6960 KOLLCENTER PKW STE 305
PLEASANTON CA 94566-3149
USPS TRACKING # e-VS
9261 2909 8194 2420 1481 11
(9611913) 4652116 10145279
1:4 78534 2
