SHIP FROM
Pae Seie
a00 Temnal Rot
Deek Dear 24
For We TX 1010e
US Paetega
SmanPas
Ship To:
JYOTHI KASHI
6960 KOLLCENTER PKW STE 305
PLEASANTON CA 94566-3149
USPS TRACKING # e-VS
9261 2909 8194 2420 1481 11
(9611913) 465218 10145279
