%24
SHIP FROM:
Parcel Sele
900 Teminal Rosd
Dock Door 244
For Worh TX 78108
U.S. Postage Pad
SmarPes:
e-VS
Ship To:
JYOTHI KASHI
6960 KOLLCENTER PKW STE 305
PLEASANTON CA 94566-3149
USPS TRACKING # e-VS
9261 2909 8194 2420 1481 11
(9611913) 4652116 10145279
1:4.795 200d
